<?xml version="1.0" encoding="UTF-8" standalone="no"?>
<svg
   xmlns:dc="http://purl.org/dc/elements/1.1/"
   xmlns:cc="http://creativecommons.org/ns#"
   xmlns:rdf="http://www.w3.org/1999/02/22-rdf-syntax-ns#"
   xmlns:svg="http://www.w3.org/2000/svg"
   xmlns="http://www.w3.org/2000/svg"
   xmlns:sodipodi="http://sodipodi.sourceforge.net/DTD/sodipodi-0.dtd"
   xmlns:inkscape="http://www.inkscape.org/namespaces/inkscape"
   enable-background="new 0 0 56.693 56.693"
   height="512"
   id="Layer_1"
   version="1.1"
   viewBox="0 0 619.62059 511.99999"
   width="619.62061"
   xml:space="preserve"
   inkscape:version="0.48.3.1 r9886"
   sodipodi:docname="uEA05-twitter.svg"><metadata
     id="metadata9"><rdf:RDF><cc:Work
         rdf:about=""><dc:format>image/svg+xml</dc:format><dc:type
           rdf:resource="http://purl.org/dc/dcmitype/StillImage" /></cc:Work></rdf:RDF></metadata><defs
     id="defs7" /><sodipodi:namedview
     pagecolor="#ffffff"
     bordercolor="#666666"
     borderopacity="1"
     objecttolerance="10"
     gridtolerance="10"
     guidetolerance="10"
     inkscape:pageopacity="0"
     inkscape:pageshadow="2"
     inkscape:window-width="1600"
     inkscape:window-height="851"
     id="namedview5"
     showgrid="false"
     fit-margin-top="0"
     fit-margin-left="0"
     fit-margin-right="0"
     fit-margin-bottom="0"
     inkscape:zoom="1.0406928"
     inkscape:cx="200.56255"
     inkscape:cy="228.61573"
     inkscape:window-x="0"
     inkscape:window-y="29"
     inkscape:window-maximized="1"
     inkscape:current-layer="Layer_1" /><path
     d="M 619.62062,60.60769 C 596.8422,70.90294 572.32806,77.84743 546.60644,80.95519 572.8689,64.96878 593.00597,39.6463 602.50223,9.43838 577.93777,24.26098 550.74454,35.01664 521.77785,40.8229 498.59694,15.70505 465.55503,0 428.99134,0 358.79459,0 301.88001,57.87081 301.88001,129.25973 c 0,10.1162 1.11942,19.97662 3.29539,29.45336 C 199.52179,153.31608 105.84228,101.86542 43.141895,23.65989 32.199203,42.74127 25.935455,64.9432 25.935455,88.65425 c 0,44.83868 22.438811,84.40825 56.549833,107.58215 -20.82885,-0.67782 -40.437652,-6.49688 -57.58121,-16.17825 -0.01259,0.53714 -0.01259,1.08708 -0.01259,1.63701 0,62.61558 43.821083,114.84638 101.980872,126.74027 -10.66597,2.9415 -21.89797,4.52735 -33.494702,4.52735 -8.200739,0 -16.162489,-0.80571 -23.922994,-2.32762 16.187636,51.34835 63.128026,88.73098 118.747096,89.7669 C 144.69512,435.07339 89.893602,455.74062 30.325104,455.74062 20.074183,455.74062 9.9490497,455.12674 0,453.92456 56.273122,490.61657 123.08644,512 194.86799,512 c 233.83406,0 361.68748,-196.95259 361.68748,-367.7642 0,-5.60164 -0.11315,-11.19049 -0.35218,-16.74097 24.8286,-18.18614 46.38696,-40.96358 63.41732,-66.88714 z"
     id="path3"
     inkscape:connector-curvature="0" /></svg>