<?xml version="1.0" encoding="UTF-8" standalone="no"?>
<svg
   xmlns:dc="http://purl.org/dc/elements/1.1/"
   xmlns:cc="http://creativecommons.org/ns#"
   xmlns:rdf="http://www.w3.org/1999/02/22-rdf-syntax-ns#"
   xmlns:svg="http://www.w3.org/2000/svg"
   xmlns="http://www.w3.org/2000/svg"
   xmlns:sodipodi="http://sodipodi.sourceforge.net/DTD/sodipodi-0.dtd"
   xmlns:inkscape="http://www.inkscape.org/namespaces/inkscape"
   height="512.23999"
   width="717.13599"
   id="svg2"
   version="1.1"
   inkscape:version="0.48.3.1 r9886"
   sodipodi:docname="youtube.svg">
  <metadata
     id="metadata10">
    <rdf:RDF>
      <cc:Work
         rdf:about="">
        <dc:format>image/svg+xml</dc:format>
        <dc:type
           rdf:resource="http://purl.org/dc/dcmitype/StillImage" />
      </cc:Work>
    </rdf:RDF>
  </metadata>
  <defs
     id="defs8" />
  <sodipodi:namedview
     pagecolor="#ffffff"
     bordercolor="#666666"
     borderopacity="1"
     objecttolerance="10"
     gridtolerance="10"
     guidetolerance="10"
     inkscape:pageopacity="0"
     inkscape:pageshadow="2"
     inkscape:window-width="1600"
     inkscape:window-height="851"
     id="namedview6"
     showgrid="false"
     fit-margin-top="0"
     fit-margin-left="0"
     fit-margin-right="0"
     fit-margin-bottom="0"
     inkscape:zoom="0.236"
     inkscape:cx="-344.78983"
     inkscape:cy="256.152"
     inkscape:window-x="0"
     inkscape:window-y="29"
     inkscape:window-maximized="1"
     inkscape:current-layer="svg2" />
  <path
     d="m 512.24,256.12 q 0,-14.80694 -12.00562,-21.61012 l -204.896,-128.06 Q 282.93256,98.44613 269.32619,105.6495 256.12,112.85288 256.12,128.06 v 256.12 q 0,15.20712 13.20619,22.4105 6.403,3.2015 12.40581,3.2015 8.00375,0 13.60638,-4.00187 l 204.896,-128.06 Q 512.24,270.92694 512.24,256.12 z m 204.896,0 q 0,38.418 -0.40019,60.02812 -0.40018,21.61013 -3.40159,54.6256 -3.00141,33.01547 -9.00422,59.02765 -6.403,29.21369 -27.61294,49.22307 -21.20994,20.00937 -49.62325,23.21087 Q 538.25219,512.24 358.568,512.24 178.88381,512.24 90.04219,502.23531 61.62888,499.03381 40.21884,479.02444 18.80881,459.01506 12.40581,429.80137 6.80319,403.78919 3.80178,370.77372 0.80038,337.75825 0.40019,316.14812 0,294.538 0,256.12 0,217.702 0.40019,196.09187 0.80038,174.48175 3.80178,141.46628 6.80319,108.45081 12.806,82.43862 19.209,53.22494 40.41894,33.21556 61.62888,13.20619 90.04219,10.00469 178.88381,0 358.568,0 q 179.68419,0 268.52581,10.00469 28.41331,3.2015 49.82335,23.21087 21.41003,20.00938 27.81303,49.22306 5.60262,26.01219 8.60403,59.02766 3.0014,33.01547 3.40159,54.62559 Q 717.136,217.702 717.136,256.12 z"
     id="path4"
     inkscape:connector-curvature="0"
     style="fill:#000000" />
</svg>
